[
    {
        "id": 322,
        "joke": "When Chuck Norris plays Monopoly, it affects the actual world economy.",
        "categories": [
            
        ]
    },
    {
        "id": 150,
        "joke": "Superman once watched an episode of Walker, Texas Ranger. He then cried himself to sleep.",
        "categories": [
            
        ]
    },
    {
        "id": 138,
        "joke": "Chuck Norris can slam a revolving door.",
        "categories": [
            
        ]
    },
    {
        "id": 147,
        "joke": "Science Fact: Roundhouse kicks are comprised primarily of an element called Chucktanium.",
        "categories": [
            
        ]
    },
    {
        "id": 350,
        "joke": "Chuck Norris starts everyday with a protein shake made from Carnation Instant Breakfast, one dozen eggs, pure Colombian cocaine, and rattlesnake venom. He injects it directly into his neck with a syringe.",
        "categories": [
            
        ]
    },
    {
        "id": 523,
        "joke": "Chuck Norris can win in a game of Russian roulette with a fully loaded gun.",
        "categories": [
            
        ]
    },
    {
        "id": 229,
        "joke": "One day Chuck Norris walked down the street with a massive erection. There were no survivors.",
        "categories": [
            "explicit"
        ]
    },
    {
        "id": 184,
        "joke": "If at first you don't succeed, you're not Chuck Norris.",
        "categories": [
            
        ]
    },
    {
        "id": 233,
        "joke": "When Bruce Banner gets mad, he turns into the Hulk. When the Hulk gets mad, he turns into Chuck Norris.",
        "categories": [
            
        ]
    },
    {
        "id": 461,
        "joke": "Chuck Norris finished World of Warcraft.",
        "categories": [
            "nerdy"
        ]
    },
    {
        "id": 263,
        "joke": "The original title for Star Wars was &quot;Skywalker: Texas Ranger&quot;. Starring Chuck Norris.",
        "categories": [
            
        ]
    },
    {
        "id": 463,
        "joke": "Chuck Norris doesn't use web standards as the web will conform to him.",
        "categories": [
            "nerdy"
        ]
    },
    {
        "id": 221,
        "joke": "Chuck Norris is the only person to ever win a staring contest against Ray Charles and Stevie Wonder.",
        "categories": [
            
        ]
    },
    {
        "id": 62,
        "joke": "Some people like to eat frogs' legs. Chuck Norris likes to eat lizard legs. Hence, snakes.",
        "categories": [
            
        ]
    },
    {
        "id": 50,
        "joke": "Chuck Norris invented Kentucky Fried Chicken's famous secret recipe with eleven herbs and spices. Nobody ever mentions the twelfth ingredient: Fear.",
        "categories": [
            
        ]
    },
    {
        "id": 250,
        "joke": "The truth will set you free. Unless Chuck Norris has you, in which case, forget it buddy!",
        "categories": [
            
        ]
    },
    {
        "id": 251,
        "joke": "Kryptonite has been found to contain trace elements of Chuck Norris roundhouse kicks to the face. This is why it is so deadly to Superman.",
        "categories": [
            
        ]
    },
    {
        "id": 107,
        "joke": "Chuck Norris doesn't bowl strikes, he just knocks down one pin and the other nine faint.",
        "categories": [
            
        ]
    },
    {
        "id": 193,
        "joke": "Most boots are made for walkin'. Chuck Norris' boots ain't that merciful.",
        "categories": [
            
        ]
    },
    {
        "id": 420,
        "joke": "The 1972 Miami Dolphins lost one game, it was a game vs. Chuck Norris and three seven year old girls. Chuck Norris won with a roundhouse-kick to the face in overtime.",
        "categories": [
            
        ]
    },
    {
        "id": 256,
        "joke": "How many roundhouse kicks does it take to get to the center of a tootsie pop? Just one. From Chuck Norris.",
        "categories": [
            
        ]
    },
    {
        "id": 305,
        "joke": "Chuck Norris knows everything there is to know - Except for the definition of mercy.",
        "categories": [
            
        ]
    },
    {
        "id": 341,
        "joke": "Chuck Norris sleeps with a pillow under his gun.",
        "categories": [
            
        ]
    },
    {
        "id": 356,
        "joke": "We live in an expanding universe. All of it is trying to get away from Chuck Norris.",
        "categories": [
            
        ]
    },
    {
        "id": 296,
        "joke": "Chuck Norris uses 8'x10' sheets of plywood as toilet paper.",
        "categories": [
            
        ]
    },
    {
        "id": 508,
        "joke": "Chuck Norris doesn't need an OS.",
        "categories": [
            "nerdy"
        ]
    },
    {
        "id": 158,
        "joke": "It's widely believed that Jesus was Chuck Norris' stunt double for crucifixion due to the fact that it is impossible for nails to pierce Chuck Norris' skin.",
        "categories": [
            
        ]
    },
    {
        "id": 84,
        "joke": "When Chuck Norris talks, everybody listens. And dies.",
        "categories": [
            
        ]
    },
    {
        "id": 142,
        "joke": "Hellen Keller's favorite color is Chuck Norris.",
        "categories": [
            
        ]
    },
    {
        "id": 103,
        "joke": "Chuck Norris and Mr. T walked into a bar. The bar was instantly destroyed, as that level of awesome cannot be contained in one building.",
        "categories": [
            
        ]
    },
    {
        "id": 248,
        "joke": "Chuck Norris once shat blood - the blood of 11,940 natives he had killed and eaten.",
        "categories": [
            
        ]
    },
    {
        "id": 383,
        "joke": "The Drummer for Def Leppard's only got one arm. Chuck Norris needed a back scratcher.",
        "categories": [
            
        ]
    },
    {
        "id": 225,
        "joke": "Chuck Norris is the reason why Waldo is hiding.",
        "categories": [
            
        ]
    },
    {
        "id": 317,
        "joke": "Chuck Norris was once in a knife fight, and the knife lost.",
        "categories": [
            
        ]
    },
    {
        "id": 112,
        "joke": "The Bermuda Triangle used to be the Bermuda Square, until Chuck Norris Roundhouse kicked one of the corners off.",
        "categories": [
            
        ]
    },
    {
        "id": 380,
        "joke": "Chuck Norris does not follow fashion trends, they follow him. But then he turns around and kicks their ass. Nobody follows Chuck Norris.",
        "categories": [
            
        ]
    },
    {
        "id": 307,
        "joke": "Chuck Norris never has to wax his skis because they're always slick with blood.",
        "categories": [
            
        ]
    },
    {
        "id": 593,
        "joke": "Chuck Norris can watch the radio.",
        "categories": [
            
        ]
    },
    {
        "id": 26,
        "joke": "Chuck Norris is the only human being to display the Heisenberg uncertainty principle - you can never know both exactly where and how quickly he will roundhouse-kick you in the face.",
        "categories": [
            "nerdy"
        ]
    },
    {
        "id": 254,
        "joke": "Chuck Norris doesn't look both ways before he crosses the street... he just roundhouses any cars that get too close.",
        "categories": [
            
        ]
    },
    {
        "id": 599,
        "joke": "Chuck Norris can make fire using two ice cubes.",
        "categories": [
            
        ]
    },
    {
        "id": 257,
        "joke": "Chuck Norris doesnt wear a watch, HE decides what time it is.",
        "categories": [
            
        ]
    },
    {
        "id": 205,
        "joke": "It is scientifically impossible for Chuck Norris to have had a mortal father. The most popular theory is that he went back in time and fathered himself.",
        "categories": [
            
        ]
    },
    {
        "id": 230,
        "joke": "Chuck Norris built a time machine and went back in time to stop the JFK assassination. As Oswald shot, Chuck met all three bullets with his beard, deflecting them. JFK's head exploded out of sheer amazement.",
        "categories": [
            
        ]
    },
    {
        "id": 270,
        "joke": "The phrase 'dead ringer' refers to someone who sits behind Chuck Norris in a movie theater and forgets to turn their cell phone off.",
        "categories": [
            
        ]
    },
    {
        "id": 602,
        "joke": "Chuck Norris doesn't age, because time cannot keep up with him.",
        "categories": [
            
        ]
    },
    {
        "id": 75,
        "joke": "Chuck Norris can believe it's not butter.",
        "categories": [
            
        ]
    },
    {
        "id": 102,
        "joke": "Chuck Norris ordered a Big Mac at Burger King, and got one.",
        "categories": [
            
        ]
    },
    {
        "id": 436,
        "joke": "Chuck Norris describes human beings as &quot;a sociable holder for blood and guts&quot;.",
        "categories": [
            
        ]
    },
    {
        "id": 143,
        "joke": "Chuck Norris eats beef jerky and craps gunpowder. Then, he uses that gunpowder to make a bullet, which he uses to kill a cow and make more beef jerky. Some people refer to this as the &quot;Circle of Life.&quot;",
        "categories": [
            
        ]
    },
    {
        "id": 539,
        "joke": "Chuck Norris's database has only one table, 'Kick', which he DROPs frequently.",
        "categories": [
            "nerdy"
        ]
    },
    {
        "id": 160,
        "joke": "Along with his black belt, Chuck Norris often chooses to wear brown shoes. No one has DARED call him on it. Ever.",
        "categories": [
            
        ]
    },
    {
        "id": 164,
        "joke": "Chuck Norris once sued Burger King after they refused to put razor wire in his Whopper Jr, insisting that that actually is &quot;his&quot; way.",
        "categories": [
            
        ]
    },
    {
        "id": 486,
        "joke": "Chuck Norris solved the Travelling Salesman problem in O(1) time. Here's the pseudo-code: Break salesman into N pieces. Kick each piece to a different city.",
        "categories": [
            "nerdy"
        ]
    },
    {
        "id": 16,
        "joke": "Pluto is actually an orbiting group of British soldiers from the American Revolution who entered space after the Chuck gave them a roundhouse kick to the face.",
        "categories": [
            
        ]
    },
    {
        "id": 500,
        "joke": "Chuck Norris can access the DB from the UI.",
        "categories": [
            "nerdy"
        ]
    },
    {
        "id": 556,
        "joke": "Chuck Norris can write to an output stream.",
        "categories": [
            "nerdy"
        ]
    },
    {
        "id": 57,
        "joke": "Chuck Norris is ten feet tall, weighs two-tons, breathes fire, and could eat a hammer and take a shotgun blast standing.",
        "categories": [
            
        ]
    },
    {
        "id": 126,
        "joke": "When Chuck Norris does a pushup, he isn't lifting himself up, he's pushing the Earth down.",
        "categories": [
            
        ]
    },
    {
        "id": 397,
        "joke": "When Chuck Norris makes a burrito, its main ingredient is real toes.",
        "categories": [
            
        ]
    },
    {
        "id": 591,
        "joke": "There is no April 1st in Chuck Norris' calendar, because no one can fool him.",
        "categories": [
            
        ]
    },
    {
        "id": 323,
        "joke": "Chuck Norris can be unlocked on the hardest level of Tekken. But only Chuck Norris is skilled enough to unlock himself. Then he roundhouse kicks the Playstation back to Japan.",
        "categories": [
            
        ]
    },
    {
        "id": 35,
        "joke": "Fool me once, shame on you. Fool Chuck Norris once and he will roundhouse kick you in the face.",
        "categories": [
            
        ]
    },
    {
        "id": 198,
        "joke": "Do you know why Baskin Robbins only has 31 flavors? Because Chuck Norris doesn't like Fudge Ripple.",
        "categories": [
            
        ]
    },
    {
        "id": 93,
        "joke": "When you're Chuck Norris, anything + anything is equal to 1. One roundhouse kick to the face.",
        "categories": [
            
        ]
    },
    {
        "id": 360,
        "joke": "Two wrongs don't make a right. Unless you're Chuck Norris. Then two wrongs make a roundhouse kick to the face.",
        "categories": [
            
        ]
    },
    {
        "id": 204,
        "joke": "Nagasaki never had a bomb dropped on it. Chuck Norris jumped out of a plane and punched the ground",
        "categories": [
            
        ]
    },
    {
        "id": 492,
        "joke": "There is no Esc key on Chuck Norris' keyboard, because no one escapes Chuck Norris.",
        "categories": [
            "nerdy"
        ]
    },
    {
        "id": 72,
        "joke": "How much wood would a woodchuck chuck if a woodchuck could Chuck Norris? All of it.",
        "categories": [
            
        ]
    },
    {
        "id": 197,
        "joke": "Chuck Norris began selling the Total Gym as an ill-fated attempt to make his day-to-day opponents less laughably pathetic.",
        "categories": [
            
        ]
    },
    {
        "id": 392,
        "joke": "After returning from World War 2 unscrathed, Bob Dole was congratulated by Chuck Norris with a handshake. The rest is history.",
        "categories": [
            
        ]
    },
    {
        "id": 196,
        "joke": "The Bible was originally titled &quot;Chuck Norris and Friends&quot;",
        "categories": [
            
        ]
    },
    {
        "id": 274,
        "joke": "One time, Chuck Norris accidentally stubbed his toe. It destroyed the entire state of Ohio.",
        "categories": [
            
        ]
    },
    {
        "id": 185,
        "joke": "If Chuck Norris were a calendar, every month would be named Chucktober, and every day he'd kick your ass.",
        "categories": [
            
        ]
    },
    {
        "id": 202,
        "joke": "Google won't search for Chuck Norris because it knows you don't find Chuck Norris, he finds you.",
        "categories": [
            
        ]
    },
    {
        "id": 417,
        "joke": "According to the Bible, God created the universe in six days. Before that, Chuck Norris created God by snapping his fingers.",
        "categories": [
            
        ]
    },
    {
        "id": 208,
        "joke": "Chuck Norris shot the sheriff, but he round house kicked the deputy.",
        "categories": [
            
        ]
    },
    {
        "id": 472,
        "joke": "When Chuck Norris is web surfing websites get the message &quot;Warning: Internet Explorer has deemed this user to be malicious or dangerous. Proceed?&quot;.",
        "categories": [
            "nerdy"
        ]
    },
    {
        "id": 30,
        "joke": "Someone once tried to tell Chuck Norris that roundhouse kicks aren't the best way to kick someone. This has been recorded by historians as the worst mistake anyone has ever made.",
        "categories": [
            
        ]
    },
    {
        "id": 33,
        "joke": "Chuck Norris once shot down a German fighter plane with his finger. By yelling &quot;Bang!&quot;",
        "categories": [
            
        ]
    },
    {
        "id": 517,
        "joke": "Chuck Norris solved the halting problem.",
        "categories": [
            "nerdy"
        ]
    },
    {
        "id": 382,
        "joke": "Chuck Norris once participated in the running of the bulls. He walked.",
        "categories": [
            
        ]
    },
    {
        "id": 243,
        "joke": "Contrary to popular belief, the Titanic didn't hit an iceberg. The ship was off course and ran into Chuck Norris while he was doing the backstroke across the Atlantic.",
        "categories": [
            
        ]
    },
    {
        "id": 327,
        "joke": "Chuck Norris once ordered a steak in a restaurant. The steak did what it was told.",
        "categories": [
            
        ]
    },
    {
        "id": 427,
        "joke": "Chuck Norris' favorite cereal is Kellogg's Nails 'N' Gravel.",
        "categories": [
            
        ]
    },
    {
        "id": 363,
        "joke": "When Chuck Norris goes to out to eat, he orders a whole chicken, but he only eats its soul.",
        "categories": [
            
        ]
    },
    {
        "id": 477,
        "joke": "Chuck Norris can access private methods.",
        "categories": [
            "nerdy"
        ]
    },
    {
        "id": 381,
        "joke": "Diamonds are not, despite popular belief, carbon. They are, in fact, Chuck Norris fecal matter. This was proven a recently, when scientific analysis revealed what appeared to be Jean-Claude Van Damme bone fragments inside the Hope Diamond.",
        "categories": [
            
        ]
    },
    {
        "id": 409,
        "joke": "The term &quot;Cleveland Steamer&quot; got its name from Chuck Norris, when he took a dump while visiting the Rock and Roll Hall of fame and buried northern Ohio under a glacier of fecal matter.",
        "categories": [
            
        ]
    },
    {
        "id": 265,
        "joke": "The phrase 'balls to the wall' was originally conceived to describe Chuck Norris entering any building smaller than an aircraft hangar.",
        "categories": [
            
        ]
    },
    {
        "id": 71,
        "joke": "When Chuck Norris has sex with a man, it won't be because he is gay. It will be because he has run out of women.",
        "categories": [
            "explicit"
        ]
    },
    {
        "id": 419,
        "joke": "Count from one to ten. That's how long it would take Chuck Norris to kill you...Forty seven times.",
        "categories": [
            
        ]
    },
    {
        "id": 111,
        "joke": "Chuck Norris has a deep and abiding respect for human life... unless it gets in his way.",
        "categories": [
            
        ]
    },
    {
        "id": 507,
        "joke": "Chuck Norris can install iTunes without installing Quicktime.",
        "categories": [
            "nerdy"
        ]
    },
    {
        "id": 542,
        "joke": "Chuck Norris types with one finger. He points it at the keyboard and the keyboard does the rest.",
        "categories": [
            "nerdy"
        ]
    },
    {
        "id": 58,
        "joke": "Crop circles are Chuck Norris' way of telling the world that sometimes corn needs to lie down.",
        "categories": [
            
        ]
    },
    {
        "id": 95,
        "joke": "On his birthday, Chuck Norris randomly selects one lucky child to be thrown into the sun.",
        "categories": [
            
        ]
    },
    {
        "id": 407,
        "joke": "Chuck Norris originally wrote the first dictionary. The definition for each word is as follows - A swift roundhouse kick to the face.",
        "categories": [
            
        ]
    },
    {
        "id": 137,
        "joke": "Tom Clancy has to pay royalties to Chuck Norris because &quot;The Sum of All Fears&quot; is the name of Chuck Norris' autobiography.",
        "categories": [
            
        ]
    },
    {
        "id": 13,
        "joke": "Chuck Norris once challenged Lance Armstrong in a &quot;Who has more testicles?&quot; contest. Chuck Norris won by 5.",
        "categories": [
            "explicit"
        ]
    }
]